com\qa\pages\LoginPage.class
com\qa\util\ExcelUtils.class
com\qa\util\TestUtil.class
com\qa\pages\HomePage.class
com\qa\util\DBConnect.class
com\qa\ExtentReportListener\ExtentReporter.class
com\qa\pages\ForgotPassword.class
com\qa\base\TestBase.class
com\qa\util\WebEventListener.class
