<?xml version="1.0" encoding="UTF-8"?>
<!DOCTYPE suite SYSTEM "http://testng.org/testng-1.0.dtd">
<suite guice-stage="DEVELOPMENT" verbose="0" name="Failed suite [Suite]">
  <listeners>
    <listener class-name="com.qa.ExtentReportListener.ExtentReporter"/>
  </listeners>
  <test thread-count="5" verbose="0" name="Test(failed)">
    <classes>
      <class name="com.qa.test.LoginPageTest">
        <methods>
          <include name="setUp"/>
          <include name="tearDown"/>
          <include name="setup"/>
          <include name="testLogin"/>
        </methods>
      </class> <!-- com.qa.test.LoginPageTest -->
    </classes>
  </test> <!-- Test(failed) -->
</suite> <!-- Failed suite [Suite] -->
